Secular affirmations against data • affirm
…
    condition = cyl %in% c(4, 6, 8),
    id = 1,
    data_frames = "mtcars"
  ) |>
  affirm_true(
    label = "MPG should be less than 33",
    condition = mpg < 33,
    id = 2,
    data_frames = "mtcars"
  )
#> • No. cylinders must be 4, 6, or 8
#>   0 issues identified.
#> • MPG should be less than 33
#>   1 issue identified.
#> # A tibble: 32 × 11
#>     mpg   cyl  disp    hp  drat    wt  qsec    vs    am  gear  carb
#>   <dbl> <dbl> <dbl> <dbl> <dbl> <dbl> <dbl> <dbl> <dbl> <dbl> <dbl>
#> 1  21       6   160   110  3.9   2.62  16.5     0     1     4     4
#> 2  21       6   160   110  3.9   2.88  17.0     0     1     4     4
#> 3  22.8     4   108    93  3.85  2.32  18.6     1     1     4     1
#> # ℹ 29 more rows
…
